{
	"id": "7aa71614-e15f-cc83-c1bb-10efd94ad1bd",
	"name": "spring-example",
	"description": "",
	"order": [
		"9103ee34-8c2c-74dc-99dc-3fd08aac428c",
		"d66a4c5c-0662-7153-2990-42934a7625eb",
		"09802e7f-4f3b-9fca-3211-32f68cdcb5cc",
		"1533605a-cc9d-1ff2-2aab-ca13fdc807e0",
		"cd11fea1-232a-9362-6262-f9aa931be5b7",
		"ec2ce174-509f-e73e-21d0-bf655db0da13",
		"324677de-ea32-7cb2-7958-2f3371a394d4",
		"87d9f632-62d5-1cec-5a9c-9988b6f0cf20",
		"4c902877-076f-a92f-1a4f-002ad5615b62",
		"19f72edd-0bd4-ca16-2af2-9e7bed9beca8"
	],
	"folders": [],
	"folders_order": [],
	"timestamp": 0,
	"owner": "9328208",
	"public": false,
	"requests": [
		{
			"id": "09802e7f-4f3b-9fca-3211-32f68cdcb5cc",
			"headers": "Content-Type: application/json\n",
			"headerData": [
				{
					"key": "Content-Type",
					"value": "application/json",
					"description": "",
					"enabled": true
				}
			],
			"url": "http://localhost:8080/employee/940580179",
			"queryParams": [],
			"preRequestScript": null,
			"pathVariables": {},
			"pathVariableData": [],
			"method": "PUT",
			"data": [],
			"dataMode": "raw",
			"tests": null,
			"currentHelper": "normal",
			"helperAttributes": {},
			"time": 1572552411643,
			"name": "update clienteby ID",
			"description": "",
			"collectionId": "7aa71614-e15f-cc83-c1bb-10efd94ad1bd",
			"responses": [],
			"rawModeData": "{\n    \"id\": \"729280953\",\n    \"firstName\": \"Alfredo\",\n    \"lastName\": \"Barrios\",\n    \"email\": \"alfredfis@gmail.com\",\n    \"clave\":\"1234\"\n}"
		},
		{
			"id": "1533605a-cc9d-1ff2-2aab-ca13fdc807e0",
			"name": "delete employee by ID",
			"description": "",
			"collectionId": "7aa71614-e15f-cc83-c1bb-10efd94ad1bd",
			"method": "DELETE",
			"headers": "Content-Type: application/x-www-form-urlencoded",
			"dataMode": "raw",
			"data": [],
			"rawModeData": "",
			"url": "http://localhost:8082/employee/980694165",
			"responses": [],
			"pathVariableData": [],
			"queryParams": [],
			"headerData": [
				{
					"key": "Content-Type",
					"value": "application/x-www-form-urlencoded"
				}
			],
			"collection_id": "7aa71614-e15f-cc83-c1bb-10efd94ad1bd"
		},
		{
			"id": "19f72edd-0bd4-ca16-2af2-9e7bed9beca8",
			"headers": "",
			"headerData": [],
			"url": "http://localhost:8080/movimientos/-1597115553",
			"queryParams": [],
			"preRequestScript": null,
			"pathVariables": {},
			"pathVariableData": [],
			"method": "GET",
			"data": null,
			"dataMode": "params",
			"version": 2,
			"tests": null,
			"currentHelper": "normal",
			"helperAttributes": {},
			"time": 1573083684345,
			"name": "get movimiento",
			"description": "",
			"collectionId": "7aa71614-e15f-cc83-c1bb-10efd94ad1bd",
			"responses": []
		},
		{
			"id": "324677de-ea32-7cb2-7958-2f3371a394d4",
			"headers": "Content-Type: application/json\n",
			"headerData": [
				{
					"key": "Content-Type",
					"value": "application/json",
					"description": "",
					"enabled": true
				}
			],
			"url": "http://localhost:8080/movimiento",
			"queryParams": [],
			"preRequestScript": null,
			"pathVariables": {},
			"pathVariableData": [],
			"method": "POST",
			"data": [],
			"dataMode": "raw",
			"tests": null,
			"currentHelper": "normal",
			"helperAttributes": {},
			"time": 1572560721187,
			"name": "create movimiento",
			"description": "",
			"collectionId": "7aa71614-e15f-cc83-c1bb-10efd94ad1bd",
			"responses": [],
			"rawModeData": "{\n\"valor\":-30,\n\"descripcion\":\"pago luz\"\n}"
		},
		{
			"id": "4c902877-076f-a92f-1a4f-002ad5615b62",
			"headers": "",
			"headerData": [],
			"url": "http://localhost:8080/movimientos/-1597115553",
			"queryParams": [],
			"pathVariables": {},
			"pathVariableData": [],
			"preRequestScript": null,
			"method": "GET",
			"collectionId": "7aa71614-e15f-cc83-c1bb-10efd94ad1bd",
			"data": null,
			"dataMode": "params",
			"name": "get cuentas",
			"description": "",
			"descriptionFormat": "html",
			"time": 1572564461989,
			"version": 2,
			"responses": [],
			"tests": null,
			"currentHelper": "normal",
			"helperAttributes": {}
		},
		{
			"id": "87d9f632-62d5-1cec-5a9c-9988b6f0cf20",
			"headers": "Content-Type: application/json\n",
			"headerData": [
				{
					"key": "Content-Type",
					"value": "application/json",
					"description": "",
					"enabled": true
				}
			],
			"url": "http://localhost:8080/cuenta",
			"queryParams": [],
			"pathVariables": {},
			"pathVariableData": [],
			"preRequestScript": null,
			"method": "POST",
			"collectionId": "7aa71614-e15f-cc83-c1bb-10efd94ad1bd",
			"data": [],
			"dataMode": "raw",
			"name": "create cuenta",
			"description": "",
			"descriptionFormat": "html",
			"time": 1572560714426,
			"version": 2,
			"responses": [],
			"tests": null,
			"currentHelper": "normal",
			"helperAttributes": {},
			"rawModeData": "{\n\t\"denominacion\":\"soles\",\n\t\"numero\":\"0011-0252-141414\",\n\t\"nombre\":\"cuenta ganadora\"\n}"
		},
		{
			"id": "9103ee34-8c2c-74dc-99dc-3fd08aac428c",
			"name": "get all employees",
			"description": "",
			"collectionId": "7aa71614-e15f-cc83-c1bb-10efd94ad1bd",
			"method": "GET",
			"headers": "",
			"data": [],
			"rawModeData": "",
			"url": "http://localhost:8082/employees",
			"responses": [],
			"pathVariableData": [],
			"queryParams": [],
			"headerData": [],
			"collection_id": "7aa71614-e15f-cc83-c1bb-10efd94ad1bd"
		},
		{
			"id": "cd11fea1-232a-9362-6262-f9aa931be5b7",
			"name": "create cliente",
			"description": "",
			"collectionId": "7aa71614-e15f-cc83-c1bb-10efd94ad1bd",
			"method": "POST",
			"headers": "Content-Type: application/json",
			"dataMode": "raw",
			"data": [],
			"rawModeData": "{\n    \"id\": 3,\n    \"firstName\": \"loasd\",\n    \"lastName\": \"gupasd1\",\n    \"email\": \"test@gmail.com\"\n}",
			"url": "http://localhost:8082/employee",
			"responses": [],
			"pathVariableData": [],
			"queryParams": [],
			"headerData": [
				{
					"key": "Content-Type",
					"value": "application/json"
				}
			],
			"collection_id": "7aa71614-e15f-cc83-c1bb-10efd94ad1bd"
		},
		{
			"id": "d66a4c5c-0662-7153-2990-42934a7625eb",
			"name": "get employee by ID",
			"description": "",
			"collectionId": "7aa71614-e15f-cc83-c1bb-10efd94ad1bd",
			"method": "GET",
			"headers": "",
			"data": [],
			"rawModeData": "",
			"url": "http://localhost:8082/employee/729280953",
			"responses": [],
			"pathVariableData": [],
			"queryParams": [],
			"headerData": [],
			"collection_id": "7aa71614-e15f-cc83-c1bb-10efd94ad1bd"
		},
		{
			"id": "ec2ce174-509f-e73e-21d0-bf655db0da13",
			"headers": "Content-Type: application/json\n",
			"headerData": [
				{
					"key": "Content-Type",
					"value": "application/json",
					"description": "",
					"enabled": true
				}
			],
			"url": "http://localhost:8080/cliente/login",
			"queryParams": [],
			"pathVariables": {},
			"pathVariableData": [],
			"preRequestScript": null,
			"method": "POST",
			"collectionId": "7aa71614-e15f-cc83-c1bb-10efd94ad1bd",
			"data": [],
			"dataMode": "raw",
			"name": "clienteLogin",
			"description": "",
			"descriptionFormat": "html",
			"time": 1572552391433,
			"version": 2,
			"responses": [],
			"tests": null,
			"currentHelper": "normal",
			"helperAttributes": {},
			"rawModeData": "{\r\n    \r\n    \"dni\": \"43547663\",\r\n    \"clave\": \"123456\"\r\n}"
		}
	]
}